{"failedCount":0,"prefixedPath":"classpath:APIFeatures\/get_listusers.feature","packageQualifiedName":"APIFeatures.get_listusers","loopIndex":-1,"relativePath":"APIFeatures\/get_listusers.feature","scenarioResults":[{"sectionIndex":0,"stepResults":[{"result":{"nanos":591000,"millis":0.591,"status":"passed"},"step":{"line":4,"prefix":"Given","index":0,"text":"url getlistuser"},"stepLog":"08:10:02.893 Env is: qa \n"},{"result":{"nanos":136805600,"millis":136.8056,"status":"passed"},"step":{"line":5,"prefix":"When","index":1,"text":"method GET"},"stepLog":"08:10:02.898 request:\n1 > GET https:\/\/reqres.in\/api\/users?page=3\n1 > Host: reqres.in\n1 > Connection: Keep-Alive\n1 > User-Agent: Apache-HttpClient\/4.5.13 (Java\/1.8.0_202)\n1 > Accept-Encoding: gzip,deflate\n\n\n08:10:03.029 response time in milliseconds: 129\n1 < 200\n1 < Date: Thu, 03 Nov 2022 02:40:01 GMT\n1 < Content-Type: application\/json; charset=utf-8\n1 < Transfer-Encoding: chunked\n1 < Connection: keep-alive\n1 < X-Powered-By: Express\n1 < Access-Control-Allow-Origin: *\n1 < Etag: W\/\"c5-hJoimgtl6KhaZadfgKS3TQ7g00U\"\n1 < Via: 1.1 vegur\n1 < Cache-Control: max-age=14400\n1 < CF-Cache-Status: HIT\n1 < Age: 1847\n1 < Report-To: {\"endpoints\":[{\"url\":\"https:\\\/\\\/a.nel.cloudflare.com\\\/report\\\/v3?s=wZN9zEwpIaMRYjw4vvXlLwjiIZPv6g2mNFmpDH9eEo7x07rtAfNKTD6CJp%2F3HmcVu987sNKihKIej%2FeRDLpOQZ7YivkiaqJKbI85rv8A6DKVPxvtwxSB6iZYdw%3D%3D\"}],\"group\":\"cf-nel\",\"max_age\":604800}\n1 < NEL: {\"success_fraction\":0,\"report_to\":\"cf-nel\",\"max_age\":604800}\n1 < Vary: Accept-Encoding\n1 < Server: cloudflare\n1 < CF-RAY: 7641be2abf2285c3-BOM\n{\"page\":3,\"per_page\":6,\"total\":12,\"total_pages\":2,\"data\":[],\"support\":{\"url\":\"https:\/\/reqres.in\/#support-heading\",\"text\":\"To keep ReqRes free, contributions towards server costs are appreciated!\"}}\n\n"},{"result":{"nanos":7900,"millis":0.0079,"status":"passed"},"step":{"line":6,"prefix":"Then","index":2,"text":"status 200"}}],"executorName":"main","line":3,"name":"Get the list of users","description":"","durationMillis":137.4045,"startTime":1667443202890,"failed":false,"refId":"[1:3]","endTime":1667443203032,"exampleIndex":-1}],"callDepth":0,"name":"Test the CRUD operations in reques.in","description":"","resultDate":"2022-11-03 08:10:03 AM","durationMillis":137.4045,"passedCount":1}