{"failedCount":0,"prefixedPath":"src\/test\/java\/APIFeatures\/get_listusers.feature","packageQualifiedName":"src.test.java.APIFeatures.get_listusers","loopIndex":-1,"relativePath":"src\/test\/java\/APIFeatures\/get_listusers.feature","scenarioResults":[{"sectionIndex":0,"stepResults":[{"result":{"nanos":1211500,"millis":1.2115,"status":"passed"},"step":{"line":4,"prefix":"Given","index":0,"text":"url getlistuser"},"stepLog":"07:53:13.347 Env is: null \n"},{"result":{"nanos":1063864600,"millis":1063.8646,"status":"passed"},"step":{"line":5,"prefix":"When","index":1,"text":"method GET"},"stepLog":"07:53:13.958 request:\n1 > GET https:\/\/reqres.in\/api\/users?page=2\n1 > Host: reqres.in\n1 > Connection: Keep-Alive\n1 > User-Agent: Apache-HttpClient\/4.5.13 (Java\/1.8.0_202)\n1 > Accept-Encoding: gzip,deflate\n\n\n07:53:14.400 response time in milliseconds: 433\n1 < 200\n1 < Date: Thu, 03 Nov 2022 02:23:13 GMT\n1 < Content-Type: application\/json; charset=utf-8\n1 < Transfer-Encoding: chunked\n1 < Connection: keep-alive\n1 < X-Powered-By: Express\n1 < Access-Control-Allow-Origin: *\n1 < Etag: W\/\"406-ut0vzoCuidvyMf8arZpMpJ6ZRDw\"\n1 < Via: 1.1 vegur\n1 < Cache-Control: max-age=14400\n1 < CF-Cache-Status: HIT\n1 < Age: 4539\n1 < Report-To: {\"endpoints\":[{\"url\":\"https:\\\/\\\/a.nel.cloudflare.com\\\/report\\\/v3?s=jU9whro8f1oSHh1HtKzUIyD%2FGoN3AKmb0%2BFOIRVfcRffYZ1UJPElC2QqJQ%2FLAUpzBm4WWBCL%2Fjvo0PpffMYnaAafu96FlbRHjZkPFIxTrkyJEY3q84GAf9QuHg%3D%3D\"}],\"group\":\"cf-nel\",\"max_age\":604800}\n1 < NEL: {\"success_fraction\":0,\"report_to\":\"cf-nel\",\"max_age\":604800}\n1 < Vary: Accept-Encoding\n1 < Server: cloudflare\n1 < CF-RAY: 7641a58a7dba84da-BOM\n{\"page\":2,\"per_page\":6,\"total\":12,\"total_pages\":2,\"data\":[{\"id\":7,\"email\":\"michael.lawson@reqres.in\",\"first_name\":\"Michael\",\"last_name\":\"Lawson\",\"avatar\":\"https:\/\/reqres.in\/img\/faces\/7-image.jpg\"},{\"id\":8,\"email\":\"lindsay.ferguson@reqres.in\",\"first_name\":\"Lindsay\",\"last_name\":\"Ferguson\",\"avatar\":\"https:\/\/reqres.in\/img\/faces\/8-image.jpg\"},{\"id\":9,\"email\":\"tobias.funke@reqres.in\",\"first_name\":\"Tobias\",\"last_name\":\"Funke\",\"avatar\":\"https:\/\/reqres.in\/img\/faces\/9-image.jpg\"},{\"id\":10,\"email\":\"byron.fields@reqres.in\",\"first_name\":\"Byron\",\"last_name\":\"Fields\",\"avatar\":\"https:\/\/reqres.in\/img\/faces\/10-image.jpg\"},{\"id\":11,\"email\":\"george.edwards@reqres.in\",\"first_name\":\"George\",\"last_name\":\"Edwards\",\"avatar\":\"https:\/\/reqres.in\/img\/faces\/11-image.jpg\"},{\"id\":12,\"email\":\"rachel.howell@reqres.in\",\"first_name\":\"Rachel\",\"last_name\":\"Howell\",\"avatar\":\"https:\/\/reqres.in\/img\/faces\/12-image.jpg\"}],\"support\":{\"url\":\"https:\/\/reqres.in\/#support-heading\",\"text\":\"To keep ReqRes free, contributions towards server costs are appreciated!\"}}\n\n"},{"result":{"nanos":22100,"millis":0.0221,"status":"passed"},"step":{"line":6,"prefix":"Then","index":2,"text":"status 200"}}],"executorName":"main","line":3,"name":"Get the list of users","description":"","durationMillis":1065.0982,"startTime":1667442193147,"failed":false,"refId":"[1:3]","endTime":1667442194456,"exampleIndex":-1}],"callDepth":0,"name":"Test the CRUD operations in reques.in","description":"","resultDate":"2022-11-03 07:53:14 AM","durationMillis":1065.0982,"passedCount":1}